{
  "user_name": "salfter",
  "miner_name": "miner10",
  "card_type": "nvidia",
  "currency": "USD",
  "pwrcost": 0.107,
  "min_profit": 0.0,
  "miners":
  {
    "Cryptonight":
    {
      "bin": "/home/m1/KTccminer-cryptonight/ccminer -o stratum+tcp://{HOST}:{PORT} -u {NAME}.{MINER} -p x",
      "power_limit": [115,115,115,95], "gpu_oc": -200, "mem_oc": 1000, "fan": 65,
      "speed": 0.000002780, "power": 0.420
    },
    "Equihash":
    {
      "bin": "/home/m1/zec/v3_4/miner --eexit 3 --fee 0 --pec --server {HOST} --user {NAME}.{MINER} --pass z --port {PORT}",
      "power_limit": [115,115,115,95], "gpu_oc": [-100,-100,-100,0], "mem_oc": 0, "fan": 65,
      "speed": 0.000001560, "power": 0.526
    },
    "Ethash":
    {
      "bin": "/home/m1/eth/ethminer/build/ethminer/ethminer -S {HOST}:{PORT} -O {NAME}.{MINER}:x -U",
      "power_limit": [115,115,115,95], "gpu_oc": -200, "mem_oc": 1000, "fan": 65,
      "speed": 0.121, "power": 0.528
    },
    "Groestl":
    {
      "bin": "/home/m1/SPccminer/ccminer -a groestl -o stratum+tcp://{HOST}:{PORT} -u {NAME}.{MINER} -p x",
      "power_limit": [115,115,115,95], "gpu_oc": [-100,-100,-100,0], "mem_oc": 0, "fan": 65,
      "speed": 0.115, "power": 0.526
    },
    "Keccak":
    {
      "bin": "/home/m1/SPccminer/ccminer -a keccak -o stratum+tcp://{HOST}:{PORT} -u {NAME}.{MINER} -p x",
      "power_limit": [115,115,115,95], "gpu_oc": [-100,-100,-100,0], "mem_oc": 0, "fan": 65,
      "speed": 1.896, "power": 0.515
    },
    "Lyra2RE2":
    {
      "bin": "/home/m1/SPccminer/ccminer -a lyra2v2 -o stratum+tcp://{HOST}:{PORT} -u {NAME}.{MINER} -p x",
      "power_limit": [115,115,115,95], "gpu_oc": [-100,-100,-100,0], "mem_oc": 0, "fan": 65,
      "speed": 0.110, "power": 0.515
    },
    "Myriad-Groestl":
    {
      "bin": "/home/m1/SPccminer/ccminer -a myr-gr -o stratum+tcp://{HOST}:{PORT} -u {NAME}.{MINER} -p x",
      "power_limit": [115,115,115,95], "gpu_oc": [-100,-100,-100,0], "mem_oc": 0, "fan": 65,
      "speed": 0.213, "power": 0.526
    },
    "NeoScrypt":
    {
      "bin": "/home/m1/SPccminer/ccminer -a neoscrypt -o stratum+tcp://{HOST}:{PORT} -u {NAME}.{MINER} -p x",
      "power_limit": [115,115,115,95], "gpu_oc": [-100,-100,-100,0], "mem_oc": 0, "fan": 65,
      "speed": 0.002910, "power": 0.527
    },
    "Qubit":
    {
      "bin": "/home/m1/SPccminer/ccminer -a qubit -o stratum+tcp://{HOST}:{PORT} -u {NAME}.{MINER} -p x",
      "power_limit": [115,115,115,95], "gpu_oc": [-100,-100,-100,0], "mem_oc": 0, "fan": 65,
      "speed": 0.069, "power": 0.515
    },
    "Scrypt":
    {
      "bin": "/home/m1/SPccminer/ccminer -a scrypt -o stratum+tcp://{HOST}:{PORT} -u {NAME}.{MINER} -p x",
      "power_limit": [115,115,115,95], "gpu_oc": [-100,-100,-100,0], "mem_oc": 0, "fan": 65,
      "speed": 0.00288, "power": 0.530
    },
    "Skein":
    {
      "bin": "/home/m1/SPccminer/ccminer -a skein -o stratum+tcp://{HOST}:{PORT} -u {NAME}.{MINER} -p x",
      "power_limit": [115,115,115,95], "gpu_oc": [-100,-100,-100,0], "mem_oc": 0, "fan": 65,
      "speed": 1.190, "power": 0.520
    },
    "X11":
    {
      "bin": "/home/m1/SPccminer/ccminer -a x11 -o stratum+tcp://{HOST}:{PORT} -u {NAME}.{MINER} -p x",
      "power_limit": [115,115,115,95], "gpu_oc": [-100,-100,-100,0], "mem_oc": 0, "fan": 65,
      "speed": 0.044, "power": 0.530
    }
  }
}
